First Steps with Stan
…
Her weakness is slot machines. She’s positively obsessed by them.

To be honest, Maud is generally rather obsessive. As you’ll see, this will work in our favour.

Somewhat surprisingly, Maud is also a big fan of R.

It’s been really, um interesting, to have her as a collaborator.

Data (by Session)

sessions %>% select(-details)

# A tibble: 100 x 7
   session spins  hits wager payout  hit_rate       rtp
     <int> <int> <int> <int>  <dbl>     <dbl>     <dbl>
 1       1     7     2    10      3 0.2857143 0.3000000
 2       2    19     7    30     29 0.3684211 0.9666667
 3       3    19     3    22      3 0.1578947 0.1363636
 4       4    26     7    30     13 0.2692308 0.4333333
 5       5    23     8    31     35 0.3478261 1.1290323
 6       6    20     8    26     12 0.4000000 0.4615385
 7       7    22     5    30     20 0.2272727 0.6666667
 8       8    22     4    25     10 0.1818182 0.4000000
 9       9    18     4    26      6 0.2222222 0.2307692
10      10    26     8    33     75 0.3076923 2.2727273
# ... with 90 more rows

Maud obsessively records her gambling stats. As a result we have a rather nice, rich data set to play with. At the session level the most important bits of information are the number of spins and the associated number of hits. It might occur to you that the relationship between these two quantities could be modelled as a binomial process.

Data (by Spin)

sessions %>% select(session, details) %>% unnest()

# A tibble: 1,972 x 4
   session  spin wager payout
     <int> <int> <int>  <dbl>
 1       1     1     1      1
 2       1     2     1      0
 3       1     3     1      0
 4       1     4     3      0
 5       1     5     2      0
 6       1     6     1      2
 7       1     7     1      0
 8       2     1     2      0
 9       2     2     2      0
10       2     3     1      1
# ... with 1,962 more rows
…
